\relax 
\catcode `:\active 
\catcode `;\active 
\catcode `!\active 
\catcode `?\active 
\select@language{french}
\@writefile{toc}{\select@language{french}}
\@writefile{lof}{\select@language{french}}
\@writefile{lot}{\select@language{french}}
\@writefile{toc}{\contentsline {paragraph}{Initialisation}{1}}
\@writefile{toc}{\contentsline {paragraph}{H\IeC {\'e}r\IeC {\'e}dit\IeC {\'e}}{2}}
\@writefile{toc}{\contentsline {paragraph}{Make}{2}}
\@writefile{toc}{\contentsline {paragraph}{Apply\_neg}{2}}
\@writefile{toc}{\contentsline {paragraph}{Apply}{2}}
\@writefile{toc}{\contentsline {paragraph}{Build}{3}}
\@writefile{toc}{\contentsline {paragraph}{Sat/Valid}{3}}
\@writefile{toc}{\contentsline {paragraph}{Anysat}{3}}
\@writefile{toc}{\contentsline {paragraph}{Extension: Les n dames}{3}}
